%YAML 1.1
%TAG !u! tag:unity3d.com,2011:
--- !u!74 &7400000
AnimationClip:
  m_ObjectHideFlags: 0
  m_PrefabParentObject: {fileID: 0}
  m_PrefabInternal: {fileID: 0}
  m_Name: Rise_Animation
  serializedVersion: 6
  m_Legacy: 0
  m_Compressed: 0
  m_UseHighQualityCurve: 1
  m_RotationCurves: []
  m_CompressedRotationCurves: []
  m_EulerCurves: []
  m_PositionCurves: []
  m_ScaleCurves: []
  m_FloatCurves: []
  m_PPtrCurves:
  - curve:
    - time: 0
      value: {fileID: 21300000, guid: 2293c9d0bd7d6d140ad6fa87eba8f486, type: 3}
    - time: 0.083333336
      value: {fileID: 21300000, guid: 32151000bb65e9c468640f208d26370d, type: 3}
    - time: 0.16666667
      value: {fileID: 21300000, guid: 98c4750e3e40f6e4baa57717b7f7bace, type: 3}
    - time: 0.25
      value: {fileID: 21300000, guid: 7aeb31d4d7a4a8c46a9b4a6bf773dc8e, type: 3}
    - time: 0.33333334
      value: {fileID: 21300000, guid: 9a489214c5ec14446b14c7f16641121e, type: 3}
    - time: 0.41666666
      value: {fileID: 21300000, guid: 86221805158abab47a9289ad040d4804, type: 3}
    - time: 0.5
      value: {fileID: 21300000, guid: b69e62a2d4b6aed4eaff47794dc014ae, type: 3}
    attribute: m_Sprite
    path: 
    classID: 212
    script: {fileID: 0}
  m_SampleRate: 12
  m_WrapMode: 0
  m_Bounds:
    m_Center: {x: 0, y: 0, z: 0}
    m_Extent: {x: 0, y: 0, z: 0}
  m_ClipBindingConstant:
    genericBindings:
    - serializedVersion: 2
      path: 0
      attribute: 0
      script: {fileID: 0}
      typeID: 212
      customType: 23
      isPPtrCurve: 1
    pptrCurveMapping:
    - {fileID: 21300000, guid: 2293c9d0bd7d6d140ad6fa87eba8f486, type: 3}
    - {fileID: 21300000, guid: 32151000bb65e9c468640f208d26370d, type: 3}
    - {fileID: 21300000, guid: 98c4750e3e40f6e4baa57717b7f7bace, type: 3}
    - {fileID: 21300000, guid: 7aeb31d4d7a4a8c46a9b4a6bf773dc8e, type: 3}
    - {fileID: 21300000, guid: 9a489214c5ec14446b14c7f16641121e, type: 3}
    - {fileID: 21300000, guid: 86221805158abab47a9289ad040d4804, type: 3}
    - {fileID: 21300000, guid: b69e62a2d4b6aed4eaff47794dc014ae, type: 3}
  m_AnimationClipSettings:
    serializedVersion: 2
    m_AdditiveReferencePoseClip: {fileID: 0}
    m_AdditiveReferencePoseTime: 0
    m_StartTime: 0
    m_StopTime: 0.5833333
    m_OrientationOffsetY: 0
    m_Level: 0
    m_CycleOffset: 0
    m_HasAdditiveReferencePose: 0
    m_LoopTime: 1
    m_LoopBlend: 0
    m_LoopBlendOrientation: 0
    m_LoopBlendPositionY: 0
    m_LoopBlendPositionXZ: 0
    m_KeepOriginalOrientation: 0
    m_KeepOriginalPositionY: 1
    m_KeepOriginalPositionXZ: 0
    m_HeightFromFeet: 0
    m_Mirror: 0
  m_EditorCurves: []
  m_EulerEditorCurves: []
  m_HasGenericRootTransform: 0
  m_HasMotionFloatCurves: 0
  m_GenerateMotionCurves: 0
  m_Events: []
